…
dir.create("outputs/tables", recursive = TRUE, showWarnings = FALSE)
dir.create("outputs/figures", recursive = TRUE, showWarnings = FALSE)
4. Data Access in R
The statistical_tables() function was first used to identify the selected TÜİK table and confirm the dataflow ID.
tables_10 <- statistical_tables("10")

selected_table <- tables_10[
  tables_10$dataflow_id == "TR,DF_MUZE_ORENYER_ZYARETCI,1.0",
]

selected_table
## # A tibble: 77 × 6
##    theme_name         theme_id table_name        node_type dataflow_id table_url
##                                                   
##  1                                                      
##  2                                                      
##  3 Culture and Sports 10       Number of Visito… dataflow  TR,DF_MUZE… https://…
##  4                                                      
##  5                                                      
##  6                                                      
##  7                                                      
##  8                                                      
##  9                                                      
## 10                                                      
## # ℹ 67 more rows
…
